Library\Bee\artifacts\mvdfrm\Unity.Services.Core.ref.dll_8733AE466239FA82.mvfrm
Library\Bee\artifacts\mvdfrm\UnityEngine.UI.ref.dll_FAE6DBEA21006BE5.mvfrm
Library\Bee\artifacts\mvdfrm\UnityEngine.AccessibilityModule.dll_F4DCAFC526AEE136.mvfrm
Library\Bee\artifacts\mvdfrm\UnityEngine.AIModule.dll_EAB47CDEF2EDE964.mvfrm
Library\Bee\artifacts\mvdfrm\UnityEngine.AndroidJNIModule.dll_4915E4C937FD6122.mvfrm
Library\Bee\artifacts\mvdfrm\UnityEngine.AnimationModule.dll_C9DA4C02ACFF825C.mvfrm
Library\Bee\artifacts\mvdfrm\UnityEngine.ARModule.dll_A42741E2500B482D.mvfrm
Library\Bee\artifacts\mvdfrm\UnityEngine.AssetBundleModule.dll_A3E20066F599BD0A.mvfrm
Library\Bee\artifacts\mvdfrm\UnityEngine.AudioModule.dll_B034DC7369B6EC4E.mvfrm
Library\Bee\artifacts\mvdfrm\UnityEngine.ClothModule.dll_171D396E43D3CB32.mvfrm
Library\Bee\artifacts\mvdfrm\UnityEngine.ClusterInputModule.dll_31601D8A73E0268C.mvfrm
Library\Bee\artifacts\mvdfrm\UnityEngine.ClusterRendererModule.dll_AE2B8E980BAF3B35.mvfrm
Library\Bee\artifacts\mvdfrm\UnityEngine.CoreModule.dll_EE0B48ADBD1A883B.mvfrm
Library\Bee\artifacts\mvdfrm\UnityEngine.CrashReportingModule.dll_A90B8252B2A90EB3.mvfrm
Library\Bee\artifacts\mvdfrm\UnityEngine.DirectorModule.dll_CD0D91FEED818D18.mvfrm
Library\Bee\artifacts\mvdfrm\UnityEngine.dll_7999845F8E128C6A.mvfrm
Library\Bee\artifacts\mvdfrm\UnityEngine.DSPGraphModule.dll_D25EF3685FE25E39.mvfrm
Library\Bee\artifacts\mvdfrm\UnityEngine.GameCenterModule.dll_73632EE3FE3E5213.mvfrm
Library\Bee\artifacts\mvdfrm\UnityEngine.GIModule.dll_82F0C5EC8E9CD17E.mvfrm
Library\Bee\artifacts\mvdfrm\UnityEngine.GridModule.dll_CB7C649BD56F1E32.mvfrm
Library\Bee\artifacts\mvdfrm\UnityEngine.HotReloadModule.dll_4B230A0888329DDE.mvfrm
Library\Bee\artifacts\mvdfrm\UnityEngine.ImageConversionModule.dll_1A1D8C488DD3F329.mvfrm
Library\Bee\artifacts\mvdfrm\UnityEngine.IMGUIModule.dll_E8947BDA2FE8802F.mvfrm
Library\Bee\artifacts\mvdfrm\UnityEngine.InputLegacyModule.dll_35271B858D8B72FB.mvfrm
Library\Bee\artifacts\mvdfrm\UnityEngine.InputModule.dll_16AAA423DFEF10F2.mvfrm
Library\Bee\artifacts\mvdfrm\UnityEngine.JSONSerializeModule.dll_54F4390125EA41C0.mvfrm
Library\Bee\artifacts\mvdfrm\UnityEngine.LocalizationModule.dll_6FACE7DD0B5C1985.mvfrm
Library\Bee\artifacts\mvdfrm\UnityEngine.ParticleSystemModule.dll_FC1DCB9F20BA9A41.mvfrm
Library\Bee\artifacts\mvdfrm\UnityEngine.PerformanceReportingModule.dll_C61E1FCDD30317FA.mvfrm
Library\Bee\artifacts\mvdfrm\UnityEngine.Physics2DModule.dll_16803BF34DFC79F1.mvfrm
Library\Bee\artifacts\mvdfrm\UnityEngine.PhysicsModule.dll_EF8463CF7A174CDF.mvfrm
Library\Bee\artifacts\mvdfrm\UnityEngine.ProfilerModule.dll_FF53CB3586DB1425.mvfrm
Library\Bee\artifacts\mvdfrm\UnityEngine.RuntimeInitializeOnLoadManagerInitializerModule.dll_E6755A63998B4CBA.mvfrm
Library\Bee\artifacts\mvdfrm\UnityEngine.ScreenCaptureModule.dll_6EDBE6863A566E22.mvfrm
Library\Bee\artifacts\mvdfrm\UnityEngine.SharedInternalsModule.dll_9E2ECB1E0501EE79.mvfrm
Library\Bee\artifacts\mvdfrm\UnityEngine.SpriteMaskModule.dll_5C8FA1741FADE78D.mvfrm
Library\Bee\artifacts\mvdfrm\UnityEngine.SpriteShapeModule.dll_BD432DC1AB3BF514.mvfrm
Library\Bee\artifacts\mvdfrm\UnityEngine.StreamingModule.dll_7E6F3952FC87399A.mvfrm
Library\Bee\artifacts\mvdfrm\UnityEngine.SubstanceModule.dll_5B1A4D9C47DA37A8.mvfrm
Library\Bee\artifacts\mvdfrm\UnityEngine.SubsystemsModule.dll_C73D07D5EDF5CFA0.mvfrm
Library\Bee\artifacts\mvdfrm\UnityEngine.TerrainModule.dll_09CADF3E4FD595CD.mvfrm
Library\Bee\artifacts\mvdfrm\UnityEngine.TerrainPhysicsModule.dll_FC98747239FD94CE.mvfrm
Library\Bee\artifacts\mvdfrm\UnityEngine.TextCoreFontEngineModule.dll_CFEA1FFEECAB3B59.mvfrm
Library\Bee\artifacts\mvdfrm\UnityEngine.TextCoreTextEngineModule.dll_17D256707C2EF477.mvfrm
Library\Bee\artifacts\mvdfrm\UnityEngine.TextRenderingModule.dll_981B5890F18DEE17.mvfrm
Library\Bee\artifacts\mvdfrm\UnityEngine.TilemapModule.dll_A8C746BF679276D6.mvfrm
Library\Bee\artifacts\mvdfrm\UnityEngine.TLSModule.dll_622177A56C20CDF3.mvfrm
Library\Bee\artifacts\mvdfrm\UnityEngine.UIElementsModule.dll_CB7B693DF1220B97.mvfrm
Library\Bee\artifacts\mvdfrm\UnityEngine.UIElementsNativeModule.dll_08DFFEFC7B8A068E.mvfrm
Library\Bee\artifacts\mvdfrm\UnityEngine.UIModule.dll_E6281B0C4F34EF10.mvfrm
Library\Bee\artifacts\mvdfrm\UnityEngine.UmbraModule.dll_2B09888BF6DD97C1.mvfrm
Library\Bee\artifacts\mvdfrm\UnityEngine.UNETModule.dll_80B190970A297DB4.mvfrm
Library\Bee\artifacts\mvdfrm\UnityEngine.UnityAnalyticsModule.dll_1BBD3C68CCE1EC3D.mvfrm
Library\Bee\artifacts\mvdfrm\UnityEngine.UnityConnectModule.dll_9F232C83BCE05471.mvfrm
Library\Bee\artifacts\mvdfrm\UnityEngine.UnityCurlModule.dll_FCF6ED341D137449.mvfrm
Library\Bee\artifacts\mvdfrm\UnityEngine.UnityTestProtocolModule.dll_17B0C49F1CD0AD37.mvfrm
Library\Bee\artifacts\mvdfrm\UnityEngine.UnityWebRequestAssetBundleModule.dll_5F34447F3BF974CE.mvfrm
Library\Bee\artifacts\mvdfrm\UnityEngine.UnityWebRequestAudioModule.dll_3E1A73AC596DE292.mvfrm
Library\Bee\artifacts\mvdfrm\UnityEngine.UnityWebRequestModule.dll_2BBC93F298C88DA8.mvfrm
Library\Bee\artifacts\mvdfrm\UnityEngine.UnityWebRequestTextureModule.dll_F6992216AD485EA7.mvfrm
Library\Bee\artifacts\mvdfrm\UnityEngine.UnityWebRequestWWWModule.dll_E2949BCC6BEEB0E3.mvfrm
Library\Bee\artifacts\mvdfrm\UnityEngine.VehiclesModule.dll_44D08B7E67AB5CB3.mvfrm
Library\Bee\artifacts\mvdfrm\UnityEngine.VFXModule.dll_E3001014428E3760.mvfrm
Library\Bee\artifacts\mvdfrm\UnityEngine.VideoModule.dll_D53E60DE2C4907F3.mvfrm
Library\Bee\artifacts\mvdfrm\UnityEngine.VirtualTexturingModule.dll_2D6CB36B54388719.mvfrm
Library\Bee\artifacts\mvdfrm\UnityEngine.VRModule.dll_38FA4191F0EF7488.mvfrm
Library\Bee\artifacts\mvdfrm\UnityEngine.WindModule.dll_645A23D64E5106A4.mvfrm
Library\Bee\artifacts\mvdfrm\UnityEngine.XRModule.dll_6BB904967A29C1E6.mvfrm
Library\Bee\artifacts\mvdfrm\Unity.VisualScripting.Antlr3.Runtime.dll_B538FD8F128E2136.mvfrm