%YAML 1.1
%TAG !u! tag:unity3d.com,2011:
--- !u!1001 &4141886822681820817
PrefabInstance:
  m_ObjectHideFlags: 0
  serializedVersion: 2
  m_Modification:
    m_TransformParent: {fileID: 0}
    m_Modifications:
    - target: {fileID: 3843025736521897282, guid: f5f071ed61864524fb9ce194d28794ef, type: 3}
      propertyPath: m_Name
      value: Grass
      objectReference: {fileID: 0}
    - target: {fileID: 3843025736522123618, guid: f5f071ed61864524fb9ce194d28794ef, type: 3}
      propertyPath: m_RootOrder
      value: 0
      objectReference: {fileID: 0}
    - target: {fileID: 3843025736522123618, guid: f5f071ed61864524fb9ce194d28794ef, type: 3}
      propertyPath: m_LocalPosition.x
      value: -16.73
      objectReference: {fileID: 0}
    - target: {fileID: 3843025736522123618, guid: f5f071ed61864524fb9ce194d28794ef, type: 3}
      propertyPath: m_LocalPosition.y
      value: -0.71
      objectReference: {fileID: 0}
    - target: {fileID: 3843025736522123618, guid: f5f071ed61864524fb9ce194d28794ef, type: 3}
      propertyPath: m_LocalPosition.z
      value: 46.54406
      objectReference: {fileID: 0}
    - target: {fileID: 3843025736522123618, guid: f5f071ed61864524fb9ce194d28794ef, type: 3}
      propertyPath: m_LocalRotation.w
      value: 1
      objectReference: {fileID: 0}
    - target: {fileID: 3843025736522123618, guid: f5f071ed61864524fb9ce194d28794ef, type: 3}
      propertyPath: m_LocalRotation.x
      value: 0
      objectReference: {fileID: 0}
    - target: {fileID: 3843025736522123618, guid: f5f071ed61864524fb9ce194d28794ef, type: 3}
      propertyPath: m_LocalRotation.y
      value: 0
      objectReference: {fileID: 0}
    - target: {fileID: 3843025736522123618, guid: f5f071ed61864524fb9ce194d28794ef, type: 3}
      propertyPath: m_LocalRotation.z
      value: 0
      objectReference: {fileID: 0}
    - target: {fileID: 3843025736522123618, guid: f5f071ed61864524fb9ce194d28794ef, type: 3}
      propertyPath: m_LocalEulerAnglesHint.x
      value: 0
      objectReference: {fileID: 0}
    - target: {fileID: 3843025736522123618, guid: f5f071ed61864524fb9ce194d28794ef, type: 3}
      propertyPath: m_LocalEulerAnglesHint.y
      value: 0
      objectReference: {fileID: 0}
    - target: {fileID: 3843025736522123618, guid: f5f071ed61864524fb9ce194d28794ef, type: 3}
      propertyPath: m_LocalEulerAnglesHint.z
      value: 0
      objectReference: {fileID: 0}
    - target: {fileID: 3843025736523893634, guid: f5f071ed61864524fb9ce194d28794ef, type: 3}
      propertyPath: m_Materials.Array.data[0]
      value: 
      objectReference: {fileID: 2100000, guid: 975dea6187c02f34688ec4f6dedf968c, type: 2}
    m_RemovedComponents: []
  m_SourcePrefab: {fileID: 100100000, guid: f5f071ed61864524fb9ce194d28794ef, type: 3}
